{
  "menu": [
    {
      "url": "/dashboard-analytics",
      "name": "Dashboard",
      "slug": "dashboard",
      "icon": "feather icon-home"
    },
    {
      "url": "/admin/product",
      "name": "Products",
      "icon": "feather icon-check-square"
    }

  ]
}

